<svg width="64" height="64" viewBox="0 0 64 64" fill="none" xmlns="http://www.w3.org/2000/svg">
<circle cx="32" cy="32" r="32" fill="#C4C4C4" fill-opacity="0.74"/>
<rect x="14.5" y="16.5" width="36" height="30" rx="1.5" stroke="white"/>
</svg>
